dplyr and SQL
…
The approach with collect() will be less efficient.

master_lcl <- collect(master)
batting_lcl <- collect(batting)
batting_lcl %>%
  left_join(master_lcl, by = "playerID") %>%
  filter(yearID >= 1980, yearID <= 1989) %>%
  group_by(playerID) %>%
  summarize(name = max(paste0(nameLast, ', ', nameFirst)), tH = sum(H)) %>%
  arrange(desc(tH))

## # A tibble: 2,281 × 3
##     playerID              name    tH
##        <chr>             <chr> <int>
## 1  yountro01      Yount, Robin  1731
## 2  murraed02     Murray, Eddie  1642
## 3  wilsowi02    Wilson, Willie  1639
## 4  boggswa01       Boggs, Wade  1597
## 5  murphda05      Murphy, Dale  1553
## 6  baineha01    Baines, Harold  1547
## 7  dawsoan01     Dawson, Andre  1539
## 8  henderi01 Henderson, Rickey  1507
## 9  trammal01    Trammell, Alan  1504
## 10 evansdw01     Evans, Dwight  1497
## # ... with 2,271 more rows
…
